<svg width="72" height="58" viewBox="0 0 72 58" version="1.1" xmlns="http://www.w3.org/2000/svg" xmlns:xlink="http://www.w3.org/1999/xlink">
<title>credit-card 2</title>
<desc>Created using Figma</desc>
<g id="Canvas" transform="translate(-94 -824)">
<g id="credit-card 2">
<g id="Group">
<g id="Group">
<g id="Vector">
<use xlink:href="#path0_fill" transform="translate(131.162 848.35)" fill="#386FE0"/>
</g>
</g>
</g>
<g id="Group">
<g id="Group">
<g id="Vector">
<use xlink:href="#path1_fill" transform="translate(100.973 871.552)" fill="#386FE0"/>
</g>
</g>
</g>
<g id="Group">
<g id="Group">
<g id="Vector">
<use xlink:href="#path1_fill" transform="translate(113.743 871.552)" fill="#386FE0"/>
</g>
</g>
</g>
<g id="Group">
<g id="Group">
<g id="Vector">
<use xlink:href="#path2_fill" transform="translate(126.513 871.552)" fill="#386FE0"/>
</g>
</g>
</g>
<g id="Group">
<g id="Group">
<g id="Vector">
<use xlink:href="#path3_fill" transform="translate(139.283 871.552)" fill="#386FE0"/>
</g>
</g>
</g>
<g id="Group">
<g id="Group">
<g id="Vector">
<use xlink:href="#path4_fill" transform="translate(100.973 852.993)" fill="#386FE0"/>
</g>
</g>
</g>
<g id="Group">
<g id="Group">
<g id="Vector">
<use xlink:href="#path5_fill" transform="translate(100.973 862.266)" fill="#386FE0"/>
</g>
</g>
</g>
<g id="Group">
<g id="Group">
<g id="Vector">
<use xlink:href="#path6_fill" transform="translate(94 824)" fill="#386FE0"/>
</g>
</g>
</g>
</g>
</g>
<defs>
<path id="path0_fill" d="M 12.7701 -8.64056e-07C 11.5087 -8.64056e-07 10.2756 0.424701 9.28347 1.18916C 8.31969 0.453015 7.11496 -8.64056e-07 5.81103 -8.64056e-07C 2.60788 -8.64056e-07 1.73013e-06 2.60483 1.73013e-06 5.80425C 1.73013e-06 9.00366 2.60788 11.6085 5.81103 11.6085C 7.12914 11.6085 8.31968 11.1555 9.29764 10.4193C 10.3039 11.1838 11.5228 11.6085 12.7843 11.6085C 15.9874 11.6085 18.5953 9.00366 18.5953 5.80425C 18.5811 2.60483 15.9732 -8.64056e-07 12.7701 -8.64056e-07ZM 5.81103 9.28679C 3.88347 9.28679 2.32441 7.72956 2.32441 5.80425C 2.32441 3.87893 3.88347 2.3217 5.81103 2.3217C 7.73858 2.3217 9.29764 3.87893 9.29764 5.80425C 9.28346 7.7154 7.72441 9.28679 5.81103 9.28679ZM 12.7701 9.28679C 12.0614 9.28679 11.3953 9.07445 10.8283 8.67806C 11.3386 7.80034 11.6079 6.80937 11.6079 5.80425C 11.6079 4.79912 11.3386 3.80815 10.8283 2.93044C 11.3953 2.53405 12.0614 2.3217 12.7701 2.3217C 14.6976 2.3217 16.2567 3.87893 16.2567 5.80425C 16.2567 7.7154 14.6976 9.28679 12.7701 9.28679Z"/>
<path id="path1_fill" d="M 6.97323 0L 0 0L 0 2.3217L 6.97323 2.3217L 6.97323 0Z"/>
<path id="path2_fill" d="M 6.97323 0L 0 0L 0 2.3217L 6.97323 2.3217L 6.97323 0Z"/>
<path id="path3_fill" d="M 6.97323 0L 0 0L 0 2.3217L 6.97323 2.3217L 6.97323 0Z"/>
<path id="path4_fill" d="M 13.9323 0L 0 0L 0 2.3217L 13.9323 2.3217L 13.9323 0Z"/>
<path id="path5_fill" d="M 30.189 0L 0 0L 0 2.3217L 30.189 2.3217L 30.189 0Z"/>
<path id="path6_fill" d="M 66.189 2.16014e-07L 15.0945 2.16014e-07C 11.8913 2.16014e-07 9.28346 2.60483 9.28346 5.80425L 9.28346 18.5594L 5.81102 18.5594C 2.60787 18.5594 0 21.1643 0 24.3637L 0 52.1958C 0 55.3952 2.60787 58 5.81102 58L 56.9055 58C 60.1087 58 62.7165 55.3952 62.7165 52.1958L 62.7165 39.4406L 66.189 39.4406C 69.3921 39.4406 72 36.8357 72 33.6363L 72 5.79009C 72 2.59068 69.3921 2.16014e-07 66.189 2.16014e-07ZM 60.3921 52.1958C 60.3921 54.1211 58.8331 55.6783 56.9055 55.6783L 5.81102 55.6783C 3.88346 55.6783 2.32441 54.1211 2.32441 52.1958L 2.32441 24.3495C 2.32441 22.4242 3.88346 20.867 5.81102 20.867L 56.9055 20.867C 58.8331 20.867 60.3921 22.4242 60.3921 24.3495L 60.3921 52.1958ZM 69.6756 33.6363C 69.6756 35.5616 68.1165 37.1189 66.189 37.1189L 62.7024 37.1189L 62.7024 24.3637C 62.7024 21.1643 60.0945 18.5594 56.8913 18.5594L 11.6079 18.5594L 11.6079 13.916L 69.6756 13.916L 69.6756 33.6363ZM 69.6756 11.5943L 11.6079 11.5943L 11.6079 9.27264L 69.6756 9.27264L 69.6756 11.5943ZM 69.6756 6.95094L 11.6079 6.95094L 11.6079 5.79009C 11.6079 3.86478 13.1669 2.30754 15.0945 2.30754L 66.189 2.30754C 68.1165 2.30754 69.6756 3.86478 69.6756 5.79009L 69.6756 6.95094Z"/>
</defs>
</svg>
