<svg width="58" height="58" viewBox="0 0 58 58" version="1.1" xmlns="http://www.w3.org/2000/svg" xmlns:xlink="http://www.w3.org/1999/xlink">
<title>credit-card</title>
<desc>Created using Figma</desc>
<g id="Canvas" transform="translate(-771 -824)">
<g id="credit-card">
<g id="Group">
<g id="Group">
<g id="Group">
<g id="Vector">
<use xlink:href="#path0_fill" transform="translate(771 824)" fill="#386FE0"/>
</g>
<g id="Vector">
<use xlink:href="#path1_fill" transform="translate(789.2 858.544)" fill="#386FE0"/>
</g>
<g id="Vector">
<use xlink:href="#path2_fill" transform="translate(792.617 867.571)" fill="#386FE0"/>
</g>
<g id="Vector">
<use xlink:href="#path3_fill" transform="translate(799.593 863.982)" fill="#386FE0"/>
</g>
<g id="Vector">
<use xlink:href="#path4_fill" transform="translate(806.08 830.153)" fill="#386FE0"/>
</g>
<g id="Vector">
<use xlink:href="#path5_fill" transform="translate(782.279 864.208)" fill="#386FE0"/>
</g>
</g>
</g>
</g>
</g>
</g>
<defs>
<path id="path0_fill" d="M 56.4604 19.9038L 38.0946 1.53741C 37.1031 0.54604 35.781 -6.75251e-12 34.3716 -6.75251e-12C 32.9622 -6.75251e-12 31.64 0.545814 30.6486 1.53718L 1.53734 30.6498C 0.546016 31.6413 0 32.9634 0 34.3729C 0 35.7824 0.546016 37.1047 1.53734 38.0959L 3.80206 40.3608C 3.80229 40.3609 3.8024 40.3611 3.80263 40.3613C 3.80285 40.3615 3.80308 40.3618 3.80331 40.362L 19.0238 55.5832L 16.9163 55.5832C 16.2491 55.5832 15.708 56.1241 15.708 56.7915C 15.708 57.4587 16.2491 57.9998 16.9163 57.9998L 23.6213 57.9998C 23.6229 57.9998 23.6244 57.9999 23.6259 57.9999C 23.6275 57.9999 23.629 57.9998 23.6306 57.9998L 41.0819 58C 41.7491 58 42.2902 57.4589 42.2902 56.7917C 42.2902 56.1243 41.7491 55.5834 41.0819 55.5834L 28.2286 55.5832L 56.4605 27.3499C 58.5132 25.297 58.5132 21.9566 56.4604 19.9038ZM 54.7517 25.6411L 25.6402 54.7539C 25.1063 55.2877 24.3926 55.582 23.6304 55.5832L 23.6212 55.5832C 22.8591 55.5819 22.1457 55.2877 21.612 54.7539L 6.36584 39.5069L 34.3231 11.5482C 34.7949 11.0763 34.7949 10.3112 34.3231 9.83937C 33.8512 9.36753 33.0863 9.36753 32.6142 9.83948L 4.65699 37.7982L 3.24596 36.3871C 2.71116 35.8523 2.41663 35.137 2.41663 34.373C 2.41663 33.609 2.71116 32.8936 3.24608 32.3587L 32.3573 3.24611C 32.8922 2.71128 33.6076 2.41674 34.3716 2.41674C 35.1355 2.41674 35.8509 2.71128 36.3858 3.24622L 42.9225 9.78307L 14.9649 37.7421C 14.4931 38.2139 14.4931 38.979 14.9649 39.4511C 15.2009 39.6869 15.5101 39.8049 15.8193 39.8049C 16.1284 39.8049 16.4377 39.6868 16.6736 39.451L 44.6312 11.492L 54.7517 21.6125C 55.8622 22.7232 55.8621 24.5305 54.7517 25.6411Z"/>
<path id="path1_fill" d="M 11.5709 0.353835C 11.099 -0.118002 10.3342 -0.117889 9.86201 0.353835L 0.353862 9.8623C -0.117954 10.3341 -0.117954 11.0992 0.353862 11.5712C 0.589827 11.8072 0.899086 11.9251 1.20823 11.9251C 1.51737 11.9251 1.82663 11.8071 2.0626 11.5712L 11.5707 2.06276C 12.0427 1.59069 12.0427 0.825673 11.5709 0.353835Z"/>
<path id="path2_fill" d="M 4.25357 0.353963L 0.353862 4.25384C -0.117954 4.72568 -0.117954 5.49082 0.353862 5.96277C 0.589827 6.19863 0.899086 6.31668 1.20823 6.31668C 1.5176 6.31668 1.82663 6.19863 2.0626 5.96277L 5.96231 2.06289C 6.43412 1.59105 6.43412 0.825914 5.96231 0.353963C 5.49049 -0.117988 4.72573 -0.117988 4.25357 0.353963Z"/>
<path id="path3_fill" d="M 0.866558 0.353822L 0.353962 0.866328C -0.117968 1.33817 -0.117968 2.10319 0.353848 2.57525C 0.5897 2.81123 0.899072 2.92927 1.20822 2.92927C 1.51736 2.92927 1.82662 2.81123 2.06247 2.57525L 2.57507 2.06275C 3.047 1.59091 3.047 0.825887 2.57518 0.353936C 2.10359 -0.117902 1.33837 -0.118016 0.866558 0.353822Z"/>
<path id="path4_fill" d="M 1.20829 2.9295C 1.51766 2.9295 1.82691 2.81146 2.06277 2.57537L 2.57537 2.06252C 3.04707 1.59057 3.04695 0.825433 2.57502 0.353708C 2.10321 -0.118016 1.33799 -0.117903 0.866291 0.354048L 0.353694 0.866895C -0.118009 1.33885 -0.117897 2.10398 0.354033 2.57571C 0.589998 2.81168 0.899027 2.9295 1.20829 2.9295Z"/>
<path id="path5_fill" d="M 0.86646 0.353964L 0.353863 0.866584C -0.117954 1.33831 -0.117954 2.10344 0.353863 2.57551C 0.589827 2.81137 0.899085 2.9293 1.20823 2.9293C 1.51737 2.9293 1.82663 2.81137 2.0626 2.57551L 2.5752 2.06289C 3.04701 1.59094 3.04701 0.825802 2.5752 0.353964C 2.10327 -0.117987 1.33839 -0.117987 0.86646 0.353964Z"/>
</defs>
</svg>
