<svg width="76" height="48" viewBox="0 0 76 48" version="1.1" xmlns="http://www.w3.org/2000/svg" xmlns:xlink="http://www.w3.org/1999/xlink">
<title>shipped</title>
<desc>Created using Figma</desc>
<g id="Canvas" transform="translate(-1099 -830)">
<g id="shipped">
<g id="Group">
<g id="Group">
<g id="Vector">
<use xlink:href="#path0_fill" transform="translate(1099 830)" fill="#386FE0"/>
</g>
</g>
</g>
<g id="Group">
<g id="Group">
<g id="Vector">
<use xlink:href="#path1_fill" transform="translate(1118.04 868.02)" fill="#386FE0"/>
</g>
</g>
</g>
<g id="Group">
<g id="Group">
<g id="Vector">
<use xlink:href="#path2_fill" transform="translate(1159.93 868.02)" fill="#386FE0"/>
</g>
</g>
</g>
<g id="Group">
<g id="Group">
<g id="Vector">
<use xlink:href="#path3_fill" transform="translate(1129.46 862.951)" fill="#386FE0"/>
</g>
</g>
</g>
<g id="Group">
<g id="Group">
<g id="Vector">
<use xlink:href="#path4_fill" transform="translate(1101.54 857.882)" fill="#386FE0"/>
</g>
</g>
</g>
<g id="Group">
<g id="Group">
<g id="Vector">
<use xlink:href="#path5_fill" transform="translate(1120.58 841.406)" fill="#386FE0"/>
</g>
</g>
</g>
</g>
</g>
<defs>
<path id="path0_fill" d="M 70.6798 20.3489L 68.7117 12.4887C 69.2498 12.3746 69.6535 11.898 69.6535 11.327L 69.6535 10.0596C 69.6535 7.30805 67.4114 5.06954 64.6556 5.06954L 55.6912 5.06954L 55.6912 2.45548C 55.6912 1.10147 54.588 -5.24656e-07 53.2319 -5.24656e-07L 7.53648 -5.24656e-07C 6.18036 -5.24656e-07 5.07717 1.10147 5.07717 2.45548L 5.07717 24.0002C 5.07717 24.6563 5.60991 25.1884 6.26719 25.1884C 6.92433 25.1884 7.45722 24.6565 7.45722 24.0002L 7.45722 2.45548C 7.45722 2.41176 7.49269 2.37634 7.53648 2.37634L 53.2317 2.37634C 53.2755 2.37634 53.311 2.41176 53.311 2.45548L 53.311 24.0005C 53.311 24.6566 53.8437 25.1887 54.501 25.1887C 55.1581 25.1887 55.691 24.6568 55.691 24.0005L 55.691 22.6536L 69.7287 22.6536C 69.7298 22.6536 69.7307 22.6539 69.7318 22.6539C 69.733 22.6539 69.734 22.6538 69.735 22.6538C 71.4624 22.655 72.9291 23.787 73.4329 25.3468L 69.7327 25.3468C 69.0755 25.3468 68.5426 25.8787 68.5426 26.535L 68.5426 29.0696C 68.5426 31.1224 70.2152 32.7924 72.2712 32.7924L 73.6199 32.7924L 73.6199 38.0201L 70.5084 38.0201C 69.4863 35.0733 66.6806 32.9507 63.3861 32.9507C 60.0915 32.9507 57.2857 35.0733 56.2637 38.0201L 55.6907 38.0201L 55.6907 29.0695C 55.6907 28.4134 55.158 27.8813 54.5007 27.8813C 53.8436 27.8813 53.3107 28.4132 53.3107 29.0695L 53.3107 38.0198L 28.6213 38.0198C 27.5992 35.073 24.7936 32.9504 21.499 32.9504C 18.2044 32.9504 15.3986 35.073 14.3766 38.0198L 7.53648 38.0198C 7.49269 38.0198 7.45722 37.9844 7.45722 37.9407L 7.45722 35.3267L 12.6138 35.3267C 13.2709 35.3267 13.8038 34.7948 13.8038 34.1386C 13.8038 33.4823 13.2711 32.9504 12.6138 32.9504L 1.19003 32.9504C 0.532892 32.9504 0 33.4823 0 34.1386C 0 34.7948 0.532743 35.3267 1.19003 35.3267L 5.07731 35.3267L 5.07731 37.9407C 5.07731 39.2947 6.1805 40.3961 7.53663 40.3961L 13.9646 40.3961C 13.9643 40.4225 13.9625 40.4487 13.9625 40.4753C 13.9625 44.6245 17.3435 48 21.499 48C 25.6545 48 29.0355 44.6245 29.0355 40.4753C 29.0355 40.4486 29.0337 40.4225 29.0334 40.3961L 55.8517 40.3961C 55.8514 40.4225 55.8496 40.4487 55.8496 40.4753C 55.8496 44.6245 59.2305 48 63.3861 48C 67.5416 48 70.9225 44.6245 70.9225 40.4753C 70.9225 40.4486 70.9208 40.4225 70.9205 40.3961L 74.81 40.3961C 75.4671 40.3961 76 39.8642 76 39.208L 76 26.5347C 76.0001 23.4058 73.6879 20.8061 70.6798 20.3489ZM 55.6912 7.44573L 64.6556 7.44573C 66.0992 7.44573 67.2736 8.61834 67.2736 10.0596L 67.2736 10.1388L 55.6912 10.1388L 55.6912 7.44573ZM 55.6912 20.2774L 55.6912 12.515L 66.2652 12.515L 68.2088 20.2774L 55.6912 20.2774ZM 21.499 45.6241C 18.6557 45.6241 16.3424 43.3146 16.3424 40.4756C 16.3424 37.6365 18.6557 35.327 21.499 35.327C 24.3423 35.327 26.6556 37.6365 26.6556 40.4756C 26.6556 43.3146 24.3423 45.6241 21.499 45.6241ZM 63.3864 45.6241C 60.543 45.6241 58.2298 43.3146 58.2298 40.4756C 58.2298 37.6365 60.543 35.327 63.3864 35.327C 66.2297 35.327 68.5429 37.6365 68.5429 40.4756C 68.5429 43.3146 66.2297 45.6241 63.3864 45.6241ZM 73.6202 30.4161L 72.2715 30.4161C 71.5279 30.4161 70.9228 29.812 70.9228 29.0695L 70.9228 27.7229L 73.6201 27.7229L 73.6201 30.4161L 73.6202 30.4161Z"/>
<path id="path1_fill" d="M 2.45932 -2.24336e-06C 1.10319 -2.24336e-06 -2.53678e-07 1.10147 -2.53678e-07 2.45548C -2.53678e-07 3.80949 1.10319 4.91096 2.45932 4.91096C 3.81545 4.91096 4.91863 3.80949 4.91863 2.45548C 4.91863 1.10147 3.81545 -2.24336e-06 2.45932 -2.24336e-06Z"/>
<path id="path2_fill" d="M 2.45932 -2.24336e-06C 1.10319 -2.24336e-06 -1.99318e-06 1.10147 -1.99318e-06 2.45548C -1.99318e-06 3.80949 1.10319 4.91096 2.45932 4.91096C 3.81545 4.91096 4.91863 3.80949 4.91863 2.45548C 4.91863 1.10147 3.81545 -2.24336e-06 2.45932 -2.24336e-06Z"/>
<path id="path3_fill" d="M 18.9604 7.9603e-07L 1.19003 7.9603e-07C 0.532892 7.9603e-07 7.42914e-07 0.531913 7.42914e-07 1.18817C 7.42914e-07 1.84443 0.532744 2.37634 1.19003 2.37634L 18.9604 2.37634C 19.6175 2.37634 20.1504 1.84443 20.1504 1.18817C 20.1504 0.531913 19.6177 7.9603e-07 18.9604 7.9603e-07Z"/>
<path id="path4_fill" d="M 16.4218 -1.73679e-06L 1.19003 -1.73679e-06C 0.532891 -1.73679e-06 -1.06454e-07 0.53191 -1.06454e-07 1.18817C -1.06454e-07 1.84442 0.532743 2.37634 1.19003 2.37634L 16.4218 2.37634C 17.079 2.37634 17.6118 1.84442 17.6118 1.18817C 17.6118 0.53191 17.079 -1.73679e-06 16.4218 -1.73679e-06Z"/>
<path id="path5_fill" d="M 19.8018 0.347895C 19.3372 -0.115991 18.5836 -0.11599 18.1189 0.348044L 7.53652 10.9138L 2.03141 5.41729C 1.56665 4.95326 0.81318 4.95326 0.348569 5.41729C -0.116189 5.88132 -0.116189 6.63347 0.348569 7.09751L 6.69518 13.4342C 6.92748 13.6663 7.23207 13.7822 7.53652 13.7822C 7.84097 13.7822 8.14571 13.6663 8.37787 13.4342L 19.8016 2.02826C 20.2664 1.56407 20.2664 0.811929 19.8018 0.347895Z"/>
</defs>
</svg>
